"ONTOLOGY";"ID";"Description";"GeneRatio";"BgRatio";"pvalue";"p.adjust";"qvalue";"geneID";"Count"
"BP";"GO:0030198";"extracellular matrix organization";"22/234";"334/17913";5,35918163670563e-10;1,36551948103259e-06;1,26476686626253e-06;"176/1287/1294/1297/1298/1300/1301/1307/2201/3036/3674/3694/3909/3918/4060/4241/4316/6692/6696/7042/25975/140766";22
"BP";"GO:0043062";"extracellular structure organization";"22/234";"387/17913";8,20970956570779e-09;1,04591699867117e-05;9,68745728753519e-06;"176/1287/1294/1297/1298/1300/1301/1307/2201/3036/3674/3694/3909/3918/4060/4241/4316/6692/6696/7042/25975/140766";22
"BP";"GO:0034765";"regulation of ion transmembrane transport";"19/234";"453/17913";8,41296708323572e-06;0,00714541337602821;0,00661820077214543;"1080/1187/3754/3757/3792/5923/5999/6327/7225/8787/10021/27092/27347/54102/56479/84502/130497/259232/338440";19
"BP";"GO:1903960";"negative regulation of anion transmembrane transport";"4/234";"13/17913";1,84989549025421e-05;0,00813754378914551;0,00753712847032316;"5999/27347/130497/338440";4
"BP";"GO:1903792";"negative regulation of anion transport";"5/234";"26/17913";1,91621910262453e-05;0,00813754378914551;0,00753712847032316;"5999/6424/27347/130497/338440";5
"BP";"GO:1903959";"regulation of anion transmembrane transport";"5/234";"26/17913";1,91621910262453e-05;0,00813754378914551;0,00753712847032316;"1080/5999/27347/130497/338440";5
"BP";"GO:0008544";"epidermis development";"18/234";"452/17913";2,91053682669588e-05;0,010594354049173;0,00981266701571754;"1294/3866/3872/3892/3909/3918/5744/6424/7042/7053/11187/22943/25984/60401/79152/80326/84518/144501";18
"BP";"GO:0043271";"negative regulation of ion transport";"9/234";"144/17913";0,000117186730776902;0,036435866419308;0,0337475057886841;"116/3757/3792/5999/6424/27347/130497/144453/338440";9
"BP";"GO:0043267";"negative regulation of potassium ion transport";"5/234";"38/17913";0,000128698115295829;0,036435866419308;0,0337475057886841;"116/3757/3792/5999/27347";5
"BP";"GO:0044070";"regulation of anion transport";"7/234";"93/17913";0,00021671429855235;0,0419199174848963;0,0388269251429966;"1080/5999/6098/6424/27347/130497/338440";7
"BP";"GO:0006813";"potassium ion transport";"10/234";"194/17913";0,000241730822119017;0,0419199174848963;0,0388269251429966;"116/3754/3757/3792/5999/10021/27347/56479/57582/259232";10
"BP";"GO:0031069";"hair follicle morphogenesis";"4/234";"24/17913";0,000245554606850288;0,0419199174848963;0,0388269251429966;"3872/7042/7053/80326";4
"BP";"GO:0051956";"negative regulation of amino acid transport";"3/234";"10/17913";0,000246781303874978;0,0419199174848963;0,0388269251429966;"5999/27347/130497";3
"BP";"GO:0060033";"anatomical structure regression";"3/234";"10/17913";0,000246781303874978;0,0419199174848963;0,0388269251429966;"2736/51176/57124";3
"BP";"GO:1903789";"regulation of amino acid transmembrane transport";"3/234";"10/17913";0,000246781303874978;0,0419199174848963;0,0388269251429966;"5999/27347/130497";3
"BP";"GO:0030199";"collagen fibril organization";"5/234";"45/17913";0,000290841577317103;0,0446450247998791;0,0413509648852883;"176/1301/4060/7042/140766";5
"BP";"GO:0034330";"cell junction organization";"12/234";"277/17913";0,000297867119936399;0,0446450247998791;0,0413509648852883;"1004/1307/2318/3909/3918/7042/7368/9074/11187/55765/64403/81607";12
"CC";"GO:0005581";"collagen trimer";"13/254";"86/18678";1,44293062639003e-10;3,99691783510039e-08;3,61492093769292e-08;"1294/1297/1298/1300/1301/1306/1307/4060/81578/115908/169044/255631/342035";13
"CC";"GO:0031012";"extracellular matrix";"25/254";"468/18678";6,24975233411058e-09;5,82758109160071e-07;5,27062245791742e-07;"176/954/1287/1294/1297/1298/1300/1301/1306/1307/2201/3909/3918/4060/4316/5196/7042/7044/25975/57124/80760/81578/115908/221914/255631";25
"CC";"GO:0062023";"collagen-containing extracellular matrix";"23/254";"399/18678";6,31145966599355e-09;5,82758109160071e-07;5,27062245791742e-07;"176/954/1287/1294/1297/1298/1300/1301/1306/1307/2201/3909/3918/4060/5196/7042/7044/25975/80760/81578/115908/221914/255631";23
"CC";"GO:0044420";"extracellular matrix component";"8/254";"47/18678";2,08322925855429e-07;1,44263626154885e-05;1,30475937772611e-05;"176/1294/1301/1306/2201/3909/3918/4060";8
"CC";"GO:0005788";"endoplasmic reticulum lumen";"17/254";"306/18678";1,06735710351123e-06;5,9131583534522e-05;5,34802085548783e-05;"1287/1294/1297/1298/1300/1301/1306/1307/4241/6696/7477/54972/81578/121506/169044/255631/340075";17
"CC";"GO:0005604";"basement membrane";"7/254";"91/18678";0,000242593257888295;0,0111997220725096;0,0101293325223534;"176/954/1294/1306/3909/3918/25975";7
"CC";"GO:0031225";"anchored component of membrane";"9/254";"156/18678";0,000290123875468428;0,011480616214965;0,0103833808062385;"1800/4045/4241/5865/27293/116372/130576/146183/221914";9
"CC";"GO:0016324";"apical plasma membrane";"12/254";"300/18678";0,000869482370790726;0,0301058270886289;0,0272285268747622;"1080/1800/4072/5021/7380/8029/23255/27347/56667/89958/146183/286204";12
"MF";"GO:0030020";"extracellular matrix structural constituent conferring tensile strength";"10/231";"41/16969";1,39391213916795e-10;4,93444897265454e-08;4,53388264213575e-08;"1287/1294/1297/1298/1300/1301/1306/1307/81578/255631";10
"MF";"GO:0005201";"extracellular matrix structural constituent";"16/231";"158/16969";4,91065074341141e-10;8,69185181583819e-08;7,98626884060066e-08;"176/1287/1294/1297/1298/1300/1301/1306/1307/2201/3909/3918/4060/81578/115908/255631";16
