"ONTOLOGY";"ID";"Description";"GeneRatio";"BgRatio";"pvalue";"p.adjust";"qvalue";"geneID";"Count"
"BP";"GO:0042742";"defense response to bacterium";"21/169";"245/17913";1,65208028828749e-14;3,97829189520499e-11;3,04446078017065e-11;"566/1511/1667/1668/1669/1969/2358/3569/3586/4057/5054/5553/6037/6279/6280/6283/6364/6556/8993/26253/338339";21
"BP";"GO:0002446";"neutrophil mediated immunity";"28/169";"499/17913";2,63340512505828e-14;3,97829189520499e-11;3,04446078017065e-11;"566/1088/1118/1511/1667/1669/2204/2358/3569/4057/4318/4353/5553/5657/6036/6037/6279/6280/6283/6556/8288/8972/8993/10321/10394/57126/222487/338339";28
"BP";"GO:0050900";"leukocyte migration";"27/169";"467/17913";3,90666961885924e-14;3,97829189520499e-11;3,04446078017065e-11;"326/566/796/1088/1588/1667/1880/1907/2358/3543/3569/3586/4318/5054/5657/6279/6280/6283/6364/7057/7852/7941/8288/54209/54210/57126/84830";27
"BP";"GO:0043312";"neutrophil degranulation";"27/169";"485/17913";9,6964204780033e-14;6,86678415561652e-11;5,25493241782214e-11;"566/1088/1118/1511/1667/1669/2204/2358/4057/4318/4353/5553/5657/6036/6037/6279/6280/6283/6556/8288/8972/8993/10321/10394/57126/222487/338339";27
"BP";"GO:0002283";"neutrophil activation involved in immune response";"27/169";"488/17913";1,12385992726948e-13;6,86678415561652e-11;5,25493241782214e-11;"566/1088/1118/1511/1667/1669/2204/2358/4057/4318/4353/5553/5657/6036/6037/6279/6280/6283/6556/8288/8972/8993/10321/10394/57126/222487/338339";27
"BP";"GO:0042119";"neutrophil activation";"27/169";"499/17913";1,91327106598305e-13;9,74173851096372e-11;7,45504392552345e-11;"566/1088/1118/1511/1667/1669/2204/2358/4057/4318/4353/5553/5657/6036/6037/6279/6280/6283/6556/8288/8972/8993/10321/10394/57126/222487/338339";27
"BP";"GO:0060326";"cell chemotaxis";"20/169";"253/17913";3,33633362759798e-13;1,45607131890169e-10;1,11428526118723e-10;"566/796/1588/1667/1839/1880/1907/1969/2358/3164/3569/3586/5054/6279/6280/6283/6364/7057/7852/7941";20
"BP";"GO:0098542";"defense response to other organism";"25/169";"481/17913";3,9629677242283e-12;1,51335829968968e-09;1,15812517309356e-09;"566/1511/1667/1668/1669/1969/2358/3569/3586/4057/4353/5054/5553/6036/6037/6279/6280/6283/6364/6556/8288/8993/26253/80149/338339";25
"BP";"GO:0097529";"myeloid leukocyte migration";"16/169";"170/17913";6,15333763252679e-12;2,08871627415215e-09;1,59842840723298e-09;"566/796/1588/1907/2358/3569/5054/5657/6279/6280/6283/7057/7941/8288/54209/57126";16
"BP";"GO:0019730";"antimicrobial humoral response";"13/169";"106/17913";2,19330459448931e-11;6,70054553616485e-09;5,12771526774818e-09;"566/1511/1667/1668/1669/4057/5657/6037/6279/6280/6283/6556/8993";13
"BP";"GO:0030595";"leukocyte chemotaxis";"16/169";"188/17913";2,85916816126849e-11;7,94068975697749e-09;6,0767583599783e-09;"566/796/1588/1667/1880/1907/2358/3569/3586/5054/6279/6280/6283/7057/7852/7941";16
"BP";"GO:0050832";"defense response to fungus";"9/169";"40/17913";1,01724991877393e-10;2,58974875154531e-08;1,98185269262887e-08;"1511/1667/1668/1669/4057/4353/6279/6280/6283";9
"BP";"GO:0006959";"humoral immune response";"18/169";"276/17913";1,32580331607819e-10;3,11563779278375e-08;2,38429891903616e-08;"566/1511/1667/1668/1669/1880/3569/4057/5657/6037/6279/6280/6283/6556/8993/28984/54209/54210";18
"BP";"GO:0032602";"chemokine production";"11/169";"86/17913";5,04534197493799e-10;1,1009656952454e-07;8,42534174912577e-08;"247/326/566/1969/3569/3586/6279/6280/9173/9314/54209";11
"BP";"GO:0009620";"response to fungus";"9/169";"51/17913";1,03571289546762e-09;2,10940193043572e-07;1,6142584847955e-07;"1511/1667/1668/1669/4057/4353/6279/6280/6283";9
"BP";"GO:0042116";"macrophage activation";"11/169";"96/17913";1,67692518054183e-09;3,20187901659706e-07;2,45029659604172e-07;"566/1907/2358/3569/3586/6556/6622/7057/9173/54209/80149";11
"BP";"GO:0061844";"antimicrobial humoral immune response mediated by antimicrobial peptide";"8/169";"55/17913";4,43886991409763e-08;7,97691034562838e-06;6,10447682923271e-06;"1667/1668/1669/4057/6037/6280/6283/8993";8
"BP";"GO:0042035";"regulation of cytokine biosynthetic process";"10/169";"110/17913";8,90916062544583e-08;1,36894988291692e-05;1,04761398568644e-05;"566/3569/3586/7057/7538/9314/9590/10394/10642/10643";10
"BP";"GO:0031640";"killing of cells of other organism";"8/169";"60/17913";8,96202869340043e-08;1,36894988291692e-05;1,04761398568644e-05;"566/1511/1667/1668/1669/4057/6283/8993";8
"BP";"GO:0044364";"disruption of cells of other organism";"8/169";"60/17913";8,96202869340043e-08;1,36894988291692e-05;1,04761398568644e-05;"566/1511/1667/1668/1669/4057/6283/8993";8
"BP";"GO:0032496";"response to lipopolysaccharide";"15/169";"295/17913";1,35451048165436e-07;1,97049024831146e-05;1,50795377431294e-05;"1511/2353/3569/3586/4057/4353/5054/6279/6556/6622/7538/9590/27063/54209/80149";15
"BP";"GO:0043062";"extracellular structure organization";"17/169";"387/17913";1,57426295403912e-07;2,18607878390432e-05;1,67293685211525e-05;"1280/1490/1511/3037/3386/3491/3569/4318/4327/4353/5054/7057/7941/8435/9507/28984/84830";17
"BP";"GO:0042089";"cytokine biosynthetic process";"10/169";"120/17913";2,03363235275841e-07;2,70119427725085e-05;2,06713842355901e-05;"566/3569/3586/7057/7538/9314/9590/10394/10642/10643";10
"BP";"GO:0042107";"cytokine metabolic process";"10/169";"121/17913";2,19898722028305e-07;2,7991274824853e-05;2,14208360361783e-05;"566/3569/3586/7057/7538/9314/9590/10394/10642/10643";10
"BP";"GO:0002237";"response to molecule of bacterial origin";"15/169";"309/17913";2,4637738622572e-07;3,0107316596783e-05;2,3040175781361e-05;"1511/2353/3569/3586/4057/4353/5054/6279/6556/6622/7538/9590/27063/54209/80149";15
"BP";"GO:0032103";"positive regulation of response to external stimulus";"15/169";"315/17913";3,1519694084826e-07;3,70356405496706e-05;2,83422026568416e-05;"566/1907/2358/3569/5008/5054/6279/6280/6283/6622/7057/7852/7941/9173/54209";15
"BP";"GO:0050829";"defense response to Gram-negative bacterium";"8/169";"72/17913";3,80863517476956e-07;4,30940016997074e-05;3,29784745542425e-05;"566/1511/1669/3569/4057/5054/6037/6556";8
"BP";"GO:0050727";"regulation of inflammatory response";"18/169";"479/17913";6,6571794880645e-07;7,26345833429894e-05;5,55849460262829e-05;"1588/2358/3569/3586/4318/5008/5054/6279/6280/6283/6622/7941/8993/9021/9173/9314/54209/80149";18
"BP";"GO:0032642";"regulation of chemokine production";"8/169";"79/17913";7,84982373678689e-07;8,26938328133929e-05;6,32829710323183e-05;"247/566/1969/3569/3586/9173/9314/54209";8
"BP";"GO:0001819";"positive regulation of cytokine production";"17/169";"446/17913";1,14071438996453e-06;0,000116162748711388;8,88956722846045e-05;"247/566/3569/3586/4602/5008/5054/6556/7057/8013/8288/9173/9590/10394/26253/28984/54209";17
"BP";"GO:0050830";"defense response to Gram-positive bacterium";"8/169";"86/17913";1,50966994749265e-06;0,000144913576106676;0,000110897769845095;"1511/1667/1668/1669/1969/3569/6037/8993";8
"BP";"GO:0002685";"regulation of leukocyte migration";"11/169";"186/17913";1,56535123126688e-06;0,000144913576106676;0,000110897769845095;"326/1588/1907/2358/3569/5054/6364/7057/7941/54209/84830";11
"BP";"GO:0050920";"regulation of chemotaxis";"11/169";"186/17913";1,56535123126688e-06;0,000144913576106676;0,000110897769845095;"566/1588/1880/1907/2358/3569/5054/7057/7852/7941/54209";11
"BP";"GO:0072593";"reactive oxygen species metabolic process";"13/169";"269/17913";1,6910311440555e-06;0,000151944121914398;0,000116278023868336;"1026/1490/2358/3491/3586/4353/6622/7057/8288/9314/10394/57126/80149";13
"BP";"GO:0050729";"positive regulation of inflammatory response";"10/169";"153/17913";1,9248701425134e-06;0,000168013665296527;0,00012857553643676;"3569/5008/5054/6279/6280/6283/6622/7941/9173/54209";10
"BP";"GO:0048545";"response to steroid hormone";"15/169";"375/17913";2,79358577323724e-06;0,000231836259255257;0,00017741694609559;"374/1026/1490/1667/1668/2353/2354/3164/3569/3586/7057/7538/8013/8061/84830";15
"BP";"GO:0043030";"regulation of macrophage activation";"7/169";"66/17913";2,86494768235572e-06;0,000231836259255257;0,00017741694609559;"3569/3586/6622/7057/9173/54209/80149";7
"BP";"GO:0035821";"modification of morphology or physiology of other organism";"10/169";"160/17913";2,8837243377086e-06;0,000231836259255257;0,00017741694609559;"566/1511/1667/1668/1669/4057/6280/6283/8993/80149";10
"BP";"GO:0030316";"osteoclast differentiation";"8/169";"94/17913";2,97107858868556e-06;0,000232734489447036;0,000178104333211083;"1880/1969/2353/2719/3726/4057/54209/81501";8
"BP";"GO:0097237";"cellular response to toxic substance";"12/169";"241/17913";3,15740434569514e-06;0,000236958467288536;0,00018133680966417;"3047/3048/3569/3586/4353/4602/6280/8013/8288/9314/57016/80149";12
"BP";"GO:0002548";"monocyte chemotaxis";"6/169";"44/17913";3,38428000986858e-06;0,000236958467288536;0,00018133680966417;"796/2358/3569/5054/6283/7941";6
"BP";"GO:0019731";"antibacterial humoral response";"6/169";"44/17913";3,38428000986858e-06;0,000236958467288536;0,00018133680966417;"1511/1667/1668/1669/4057/6037";6
"BP";"GO:0071674";"mononuclear cell migration";"7/169";"68/17913";3,51034838345559e-06;0,000236958467288536;0,00018133680966417;"796/2358/3569/5054/6283/7057/7941";7
"BP";"GO:0002521";"leukocyte differentiation";"17/169";"485/17913";3,54194407520233e-06;0,000236958467288536;0,00018133680966417;"1880/1969/2353/2719/3569/3586/3726/4057/4318/4602/5657/26253/54209/80149/81501/222487/338339";17
"BP";"GO:0030198";"extracellular matrix organization";"14/169";"334/17913";3,54927787234521e-06;0,000236958467288536;0,00018133680966417;"1280/1490/1511/3037/3386/3491/3569/4318/4327/5054/7057/9507/28984/84830";14
"BP";"GO:0070486";"leukocyte aggregation";"4/169";"12/17913";3,56795073495013e-06;0,000236958467288536;0,00018133680966417;"3037/6279/6280/8013";4
"BP";"GO:0001818";"negative regulation of cytokine production";"13/169";"290/17913";3,87058903615928e-06;0,000251588287350353;0,000192532547576926;"1969/3569/3586/4057/6556/7057/7538/8288/9173/9314/28984/54209/80149";13
"BP";"GO:0050921";"positive regulation of chemotaxis";"9/169";"130/17913";3,96776735716435e-06;0,000252531859919523;0,000193254633777676;"566/1907/2358/3569/5054/7057/7852/7941/54209";9
"BP";"GO:0097530";"granulocyte migration";"8/169";"100/17913";4,73449910776976e-06;0,000295181526004829;0,000225893072359971;"1907/5657/6279/6280/6283/7057/8288/57126";8
"BP";"GO:0048661";"positive regulation of smooth muscle cell proliferation";"8/169";"101/17913";5,10088909413935e-06;0,000309604217111725;0,000236930301044067;"1839/3569/3586/4318/4602/7057/8013/9510";8
"BP";"GO:0009636";"response to toxic substance";"17/169";"499/17913";5,1685155720779e-06;0,000309604217111725;0,000236930301044067;"374/1026/2353/3047/3048/3569/3586/4353/4602/6279/6280/8013/8061/8288/9314/57016/80149";17
"BP";"GO:0048660";"regulation of smooth muscle cell proliferation";"10/169";"172/17913";5,50570278261567e-06;0,000323460038478671;0,00024753372227104;"1026/1839/3569/3586/4318/4602/7057/8013/9314/9510";10
"BP";"GO:0048659";"smooth muscle cell proliferation";"10/169";"174/17913";6,10047561667285e-06;0,000351640622810105;0,000269099430876473;"1026/1839/3569/3586/4318/4602/7057/8013/9314/9510";10
"BP";"GO:0051047";"positive regulation of secretion";"15/169";"409/17913";7,97443618191029e-06;0,000451146343254369;0,000345248007017987;"247/1588/3569/3586/4602/5008/6279/6622/9173/9590/26253/27063/28984/54209/57126";15
"BP";"GO:0051385";"response to mineralocorticoid";"5/169";"31/17913";9,81325194188202e-06;0,000545081539680901;0,000417133637567846;"1026/1490/2353/2354/8061";5
"BP";"GO:0000302";"response to reactive oxygen species";"11/169";"230/17913";1,20114074587293e-05;0,000655265174757465;0,00050145368356838;"374/1263/2353/3569/3586/4318/4353/4602/8013/8061/9314";11
"BP";"GO:0044117";"growth of symbiont in host";"4/169";"16/17913";1,27369692530134e-05;0,000682656860841332;0,000522415673332276;"1511/3586/4353/8993";4
"BP";"GO:1903532";"positive regulation of secretion by cell";"14/169";"381/17913";1,58306682607046e-05;0,000829313469796096;0,000634647331007711;"247/1588/3569/3586/4602/5008/6622/9173/9590/26253/27063/28984/54209/57126";14
"BP";"GO:0044110";"growth involved in symbiotic interaction";"4/169";"17/17913";1,65336637225002e-05;0,000829313469796096;0,000634647331007711;"1511/3586/4353/8993";4
"BP";"GO:0044116";"growth of symbiont involved in interaction with host";"4/169";"17/17913";1,65336637225002e-05;0,000829313469796096;0,000634647331007711;"1511/3586/4353/8993";4
"BP";"GO:0031960";"response to corticosteroid";"9/169";"155/17913";1,65591232921643e-05;0,000829313469796096;0,000634647331007711;"374/1026/1490/2353/2354/3569/3586/7538/8061";9
"BP";"GO:0002687";"positive regulation of leukocyte migration";"8/169";"121/17913";1,93610220537236e-05;0,000950266430078012;0,00072720880048351;"1907/2358/3569/5054/6364/7057/7941/54209";8
"BP";"GO:0002286";"T cell activation involved in immune response";"7/169";"88/17913";1,96275450654785e-05;0,000950266430078012;0,00072720880048351;"1880/3569/4602/6556/26253/80149/338339";7
"BP";"GO:0006979";"response to oxidative stress";"15/169";"442/17913";1,99073818412415e-05;0,000950266430078012;0,00072720880048351;"374/1263/2353/3569/3586/4318/4353/4602/6622/8013/8061/8288/9314/9833/80149";15
"BP";"GO:0002251";"organ or tissue specific immune response";"5/169";"36/17913";2,09590262340832e-05;0,000985074233001911;0,000753846109569212;"1667/1668/3569/4057/6037";5
"BP";"GO:0002573";"myeloid leukocyte differentiation";"10/169";"201/17913";2,15191253324144e-05;0,000996074665007971;0,00076226439175905;"1880/1969/2353/2719/3726/4057/4318/5657/54209/81501";10
"BP";"GO:0002544";"chronic inflammatory response";"4/169";"19/17913";2,65322074478412e-05;0,00119199843754639;0,00091219864925163;"1588/3586/6279/7057";4
"BP";"GO:0051412";"response to corticosterone";"4/169";"19/17913";2,65322074478412e-05;0,00119199843754639;0,00091219864925163;"1026/2353/2354/8061";4
"BP";"GO:0030099";"myeloid cell differentiation";"14/169";"411/17913";3,64804665883157e-05;0,00160179001114412;0,00122579916091002;"1880/1969/2353/2719/3726/4057/4318/4778/5657/7057/7538/8013/54209/81501";14
"BP";"GO:0002292";"T cell differentiation involved in immune response";"6/169";"66/17913";3,67022261145952e-05;0,00160179001114412;0,00122579916091002;"1880/3569/4602/26253/80149/338339";6
"BP";"GO:1903034";"regulation of response to wounding";"9/169";"173/17913";3,95014400782135e-05;0,0016996746399851;0,00130070716699351;"1026/1839/3586/5054/7057/7852/9314/51330/84830";9
"BP";"GO:0002227";"innate immune response in mucosa";"4/169";"21/17913";4,03696270238255e-05;0,00171290570219149;0,00131083247982334;"1667/1668/4057/6037";4
"BP";"GO:2000379";"positive regulation of reactive oxygen species metabolic process";"7/169";"101/17913";4,79943823033831e-05;0,00200853202653199;0,00153706594226119;"1026/2358/6622/7057/9314/57126/80149";7
"BP";"GO:0032682";"negative regulation of chemokine production";"4/169";"22/17913";4,89786387337298e-05;0,00202202353150736;0,00154739056369294;"1969/3569/3586/9314";4
"BP";"GO:0000082";"G1/S transition of mitotic cell cycle";"11/169";"269/17913";5,0847606265846e-05;0,00207119249522879;0,00158501801426588;"1026/1263/1820/7832/8328/9134/9314/9510/28984/55388/131405";11
"BP";"GO:0050867";"positive regulation of cell activation";"12/169";"319/17913";5,19504108334773e-05;0,00208234350395075;0,00159355152804707;"1026/1490/1880/3569/3586/4602/7057/8013/9173/54209/57126/338339";12
"BP";"GO:0051384";"response to glucocorticoid";"8/169";"139/17913";5,24845989539141e-05;0,00208234350395075;0,00159355152804707;"374/1026/2353/2354/3569/3586/7538/8061";8
"BP";"GO:1990266";"neutrophil migration";"6/169";"72/17913";6,02369298470753e-05;0,00233933520112924;0,00179021913401948;"1907/5657/6279/6280/6283/57126";6
"BP";"GO:0071219";"cellular response to molecule of bacterial origin";"9/169";"183/17913";6,11697452401857e-05;0,00233933520112924;0,00179021913401948;"1511/3569/3586/4057/5054/7538/27063/54209/80149";9
"BP";"GO:0002688";"regulation of leukocyte chemotaxis";"7/169";"105/17913";6,15412531642848e-05;0,00233933520112924;0,00179021913401948;"1588/1907/2358/3569/5054/7057/7941";7
"BP";"GO:0002793";"positive regulation of peptide secretion";"11/169";"275/17913";6,20249267729846e-05;0,00233933520112924;0,00179021913401948;"247/3569/3586/5008/6279/9173/9590/26253/27063/28984/54209";11
"BP";"GO:0043410";"positive regulation of MAPK cascade";"15/169";"499/17913";7,93693615473576e-05;0,0029569926771607;0,00226289283692787;"1490/1847/1852/1880/2358/3569/5008/6283/7057/7852/9518/9590/22943/54209/80149";15
"BP";"GO:0150076";"neuroinflammatory response";"6/169";"76/17913";8,17088816534362e-05;0,00300747751146081;0,00230152728157618;"566/2358/3569/4318/6622/54209";6
"BP";"GO:0044843";"cell cycle G1/S phase transition";"11/169";"288/17913";9,36676929755336e-05;0,00338107228096155;0,0025874275255459;"1026/1263/1820/7832/8328/9134/9314/9510/28984/55388/131405";11
"BP";"GO:0032680";"regulation of tumor necrosis factor production";"8/169";"151/17913";9,40723875226617e-05;0,00338107228096155;0,0025874275255459;"566/3586/4057/7057/7538/9590/54209/80149";8
"BP";"GO:0032102";"negative regulation of response to external stimulus";"12/169";"343/17913";0,000103644217023146;0,00361405215730039;0,00276571964557298;"1026/1588/2358/3586/4057/5054/7057/8993/9021/9314/80149/84830";12
"BP";"GO:0001774";"microglial cell activation";"5/169";"50/17913";0,000105890248841404;0,00361405215730039;0,00276571964557298;"566/2358/3569/6622/54209";5
"BP";"GO:0002269";"leukocyte activation involved in inflammatory response";"5/169";"50/17913";0,000105890248841404;0,00361405215730039;0,00276571964557298;"566/2358/3569/6622/54209";5
"BP";"GO:1905517";"macrophage migration";"5/169";"50/17913";0,000105890248841404;0,00361405215730039;0,00276571964557298;"566/1588/1907/7057/54209";5
"BP";"GO:0033002";"muscle cell proliferation";"10/169";"243/17913";0,000106469621655331;0,00361405215730039;0,00276571964557298;"1026/1839/3569/3586/4318/4602/7057/8013/9314/9510";10
"BP";"GO:0032640";"tumor necrosis factor production";"8/169";"155/17913";0,000112884471414345;0,00374850065403069;0,00286860882163913;"566/3586/4057/7057/7538/9590/54209/80149";8
"BP";"GO:1903555";"regulation of tumor necrosis factor superfamily cytokine production";"8/169";"155/17913";0,000112884471414345;0,00374850065403069;0,00286860882163913;"566/3586/4057/7057/7538/9590/54209/80149";8
"BP";"GO:0002690";"positive regulation of leukocyte chemotaxis";"6/169";"81/17913";0,000116679674148169;0,00383286456475975;0,00293316985040276;"1907/2358/3569/5054/7057/7941";6
"BP";"GO:0001906";"cell killing";"8/169";"156/17913";0,000118044040610128;0,00383643131982915;0,00293589937508503;"566/1511/1667/1668/1669/4057/6283/8993";8
"BP";"GO:0034599";"cellular response to oxidative stress";"11/169";"296/17913";0,000119314030171712;0,00383688802289031;0,00293624887547227;"2353/3569/3586/4318/4353/4602/6622/8013/9314/9833/80149";11
"BP";"GO:0034115";"negative regulation of heterotypic cell-cell adhesion";"3/169";"11/17913";0,000128755021809371;0,00392877034551203;0,00300656350672141;"3586/9314/91663";3
"BP";"GO:0070278";"extracellular matrix constituent secretion";"3/169";"11/17913";0,000128755021809371;0,00392877034551203;0,00300656350672141;"1490/28984/84830";3
"BP";"GO:0070587";"regulation of cell-cell adhesion involved in gastrulation";"3/169";"11/17913";0,000128755021809371;0,00392877034551203;0,00300656350672141;"3586/9314/91663";3
"BP";"GO:0072537";"fibroblast activation";"3/169";"11/17913";0,000128755021809371;0,00392877034551203;0,00300656350672141;"4602/9590/28984";3
"BP";"GO:0002285";"lymphocyte activation involved in immune response";"8/169";"158/17913";0,000128949016663327;0,00392877034551203;0,00300656350672141;"1880/3569/3586/4602/6556/26253/80149/338339";8
"BP";"GO:0042533";"tumor necrosis factor biosynthetic process";"4/169";"28/17913";0,000131173347051466;0,00392877034551203;0,00300656350672141;"566/3586/7057/9590";4
"BP";"GO:0042534";"regulation of tumor necrosis factor biosynthetic process";"4/169";"28/17913";0,000131173347051466;0,00392877034551203;0,00300656350672141;"566/3586/7057/9590";4
"BP";"GO:0071706";"tumor necrosis factor superfamily cytokine production";"8/169";"161/17913";0,000146856503739254;0,00435579241673223;0,00333334997245664;"566/3586/4057/7057/7538/9590/54209/80149";8
"BP";"GO:0071216";"cellular response to biotic stimulus";"9/169";"206/17913";0,000151039421398429;0,00443678300357887;0,0033953295032987;"1511/3569/3586/4057/5054/7538/27063/54209/80149";9
"BP";"GO:0002696";"positive regulation of leukocyte activation";"11/169";"305/17913";0,00015510656470818;0,00451286243031894;0,00345355067886583;"1026/1880/3569/3586/4602/7057/8013/9173/54209/57126/338339";11
"BP";"GO:0050714";"positive regulation of protein secretion";"10/169";"256/17913";0,000163043400121826;0,00469903384313375;0,00359602176435527;"247/3569/3586/5008/9173/9590/26253/27063/28984/54209";10
"BP";"GO:0051549";"positive regulation of keratinocyte migration";"3/169";"12/17913";0,000170484045500844;0,00482248850930628;0,00369049771011086;"1839/3037/4318";3
"BP";"GO:0070586";"cell-cell adhesion involved in gastrulation";"3/169";"12/17913";0,000170484045500844;0,00482248850930628;0,00369049771011086;"3586/9314/91663";3
"BP";"GO:0034614";"cellular response to reactive oxygen species";"8/169";"165/17913";0,000173877290340387;0,00486733694878809;0,00372481880033021;"2353/3569/3586/4318/4353/4602/8013/9314";8
"BP";"GO:2000134";"negative regulation of G1/S transition of mitotic cell cycle";"7/169";"124/17913";0,000175255994882714;0,00486733694878809;0,00372481880033021;"1026/1263/1820/7832/8328/9314/28984";7
"BP";"GO:0006977";"DNA damage response, signal transduction by p53 class mediator resulting in cell cycle arrest";"5/169";"56/17913";0,000182400765699831;0,00502012918209897;0,00384174585698744;"1026/1263/1820/7832/28984";5
"BP";"GO:0072431";"signal transduction involved in mitotic G1 DNA damage checkpoint";"5/169";"57/17913";0,000198427597602328;0,00536456912101869;0,00410533483255492;"1026/1263/1820/7832/28984";5
"BP";"GO:1902400";"intracellular signal transduction involved in G1 DNA damage checkpoint";"5/169";"57/17913";0,000198427597602328;0,00536456912101869;0,00410533483255492;"1026/1263/1820/7832/28984";5
"BP";"GO:0044130";"negative regulation of growth of symbiont in host";"3/169";"13/17913";0,000220094518781775;0,00582718565198565;0,00445936061092605;"1511/3586/4353";3
"BP";"GO:0045342";"MHC class II biosynthetic process";"3/169";"13/17913";0,000220094518781775;0,00582718565198565;0,00445936061092605;"566/3586/6556";3
"BP";"GO:0051090";"regulation of DNA-binding transcription factor activity";"13/169";"429/17913";0,000222197176478706;0,00582718565198565;0,00445936061092605;"2353/3569/3586/4057/6279/6280/6283/8061/9314/28984/55859/80149/222487";13
"BP";"GO:0060674";"placenta blood vessel development";"4/169";"32/17913";0,000223706544094998;0,00582718565198565;0,00445936061092605;"3491/3726/8061/9021";4
"BP";"GO:0045787";"positive regulation of cell cycle";"12/169";"373/17913";0,00022583967155209;0,00582718565198565;0,00445936061092605;"1026/1263/1490/1820/3586/6755/7832/8013/8061/9510/9787/28984";12
"BP";"GO:0061900";"glial cell activation";"5/169";"59/17913";0,000233680347768372;0,00582718565198565;0,00445936061092605;"566/2358/3569/6622/54209";5
"BP";"GO:0072413";"signal transduction involved in mitotic cell cycle checkpoint";"5/169";"59/17913";0,000233680347768372;0,00582718565198565;0,00445936061092605;"1026/1263/1820/7832/28984";5
"BP";"GO:1902402";"signal transduction involved in mitotic DNA damage checkpoint";"5/169";"59/17913";0,000233680347768372;0,00582718565198565;0,00445936061092605;"1026/1263/1820/7832/28984";5
"BP";"GO:1902403";"signal transduction involved in mitotic DNA integrity checkpoint";"5/169";"59/17913";0,000233680347768372;0,00582718565198565;0,00445936061092605;"1026/1263/1820/7832/28984";5
"BP";"GO:1902807";"negative regulation of cell cycle G1/S phase transition";"7/169";"130/17913";0,000234613366675691;0,00582718565198565;0,00445936061092605;"1026/1263/1820/7832/8328/9314/28984";7
"BP";"GO:0002385";"mucosal immune response";"4/169";"33/17913";0,000252700556704133;0,006176001605849;0,00472629841212529;"1667/1668/4057/6037";4
"BP";"GO:0043032";"positive regulation of macrophage activation";"4/169";"33/17913";0,000252700556704133;0,006176001605849;0,00472629841212529;"3586/7057/9173/54209";4
"BP";"GO:0050715";"positive regulation of cytokine secretion";"7/169";"132/17913";0,000257655960238698;0,00624713459150176;0,0047807342330004;"247/3586/5008/9173/9590/26253/28984";7
"BP";"GO:2000116";"regulation of cysteine-type endopeptidase activity";"9/169";"222/17913";0,000263924488077721;0,00634873473289321;0,00485848560315473;"1490/3491/4057/4318/6279/6280/6622/7057/9314";9
"BP";"GO:0071222";"cellular response to lipopolysaccharide";"8/169";"176/17913";0,000269947904123064;0,00643821238300286;0,00492696001469528;"1511/3569/3586/4057/5054/7538/27063/80149";8
"BP";"GO:0044126";"regulation of growth of symbiont in host";"3/169";"14/17913";0,00027818135337361;0,00643821238300286;0,00492696001469528;"1511/3586/4353";3
"BP";"GO:0044146";"negative regulation of growth of symbiont involved in interaction with host";"3/169";"14/17913";0,00027818135337361;0,00643821238300286;0,00492696001469528;"1511/3586/4353";3
"BP";"GO:0051547";"regulation of keratinocyte migration";"3/169";"14/17913";0,00027818135337361;0,00643821238300286;0,00492696001469528;"1839/3037/4318";3
"BP";"GO:0051852";"disruption by host of symbiont cells";"3/169";"14/17913";0,00027818135337361;0,00643821238300286;0,00492696001469528;"566/1511/1667";3
"BP";"GO:2000045";"regulation of G1/S transition of mitotic cell cycle";"8/169";"177/17913";0,000280491180119679;0,00644286131778661;0,0049305176972363;"1026/1263/1820/7832/8328/9314/9510/28984";8
"BP";"GO:0007159";"leukocyte cell-cell adhesion";"11/169";"328/17913";0,000290319351763357;0,0065935712579561;0,00504585124090637;"3037/3569/3586/4602/6279/6280/8013/9314/57126/80149/84830";11
"BP";"GO:0007369";"gastrulation";"8/169";"178/17913";0,000291368942659271;0,0065935712579561;0,00504585124090637;"1969/2719/3586/4318/8013/9314/22943/91663";8
"BP";"GO:0031571";"mitotic G1 DNA damage checkpoint";"5/169";"63/17913";0,000318279881515626;0,00700313440888707;0,00535927694793288;"1026/1263/1820/7832/28984";5
"BP";"GO:0042108";"positive regulation of cytokine biosynthetic process";"5/169";"63/17913";0,000318279881515626;0,00700313440888707;0,00535927694793288;"566/3569/7057/9590/10394";5
"BP";"GO:0044819";"mitotic G1/S transition checkpoint";"5/169";"63/17913";0,000318279881515626;0,00700313440888707;0,00535927694793288;"1026/1263/1820/7832/28984";5
"BP";"GO:0048246";"macrophage chemotaxis";"4/169";"35/17913";0,00031863688472514;0,00700313440888707;0,00535927694793288;"566/1588/1907/7057";4
"BP";"GO:0050663";"cytokine secretion";"9/169";"230/17913";0,000342440916158551;0,00732607731349986;0,0056064149240359;"247/3586/5008/6283/9173/9590/26253/28984/80149";9
"BP";"GO:0044783";"G1 DNA damage checkpoint";"5/169";"64/17913";0,000342645935302972;0,00732607731349986;0,0056064149240359;"1026/1263/1820/7832/28984";5
"BP";"GO:0042535";"positive regulation of tumor necrosis factor biosynthetic process";"3/169";"15/17913";0,000345320829179699;0,00732607731349986;0,0056064149240359;"566/7057/9590";3
"BP";"GO:0044144";"modulation of growth of symbiont involved in interaction with host";"3/169";"15/17913";0,000345320829179699;0,00732607731349986;0,0056064149240359;"1511/3586/4353";3
"BP";"GO:0061158";"3'-UTR-mediated mRNA destabilization";"3/169";"15/17913";0,000345320829179699;0,00732607731349986;0,0056064149240359;"7538/80149/131405";3
"BP";"GO:0034248";"regulation of cellular amide metabolic process";"13/169";"452/17913";0,000366944314549344;0,0077311371099879;0,00591639435654514;"326/1263/3491/3569/6622/7057/7538/7832/10394/10642/10643/80149/131405";13
"BP";"GO:0002504";"antigen processing and presentation of peptide or polysaccharide antigen via MHC class II";"6/169";"101/17913";0,000390228227056503;0,00816539201135353;0,00624871587810016;"1062/7057/11004/24137/54209/81930";6
"BP";"GO:0052547";"regulation of peptidase activity";"12/169";"398/17913";0,000406334377035985;0,00844456817581588;0,00646236055422072;"1490/2719/3491/4057/4318/5054/6279/6280/6622/7057/9314/27344";12
"BP";"GO:0032963";"collagen metabolic process";"6/169";"102/17913";0,00041142210311635;0,00849253057446249;0,00649906465875827;"1490/3569/4318/4602/5657/28984";6
"BP";"GO:0061041";"regulation of wound healing";"7/169";"143/17913";0,000419127679443223;0,00859352389730904;0,00657635164990038;"1026/1839/5054/7057/7852/51330/84830";7
"BP";"GO:0042542";"response to hydrogen peroxide";"7/169";"144/17913";0,000437099010739431;0,00890224985205974;0,00681260984457738;"374/3569/3586/4602/8013/8061/9314";7
"BP";"GO:0051222";"positive regulation of protein transport";"12/169";"403/17913";0,000454233005690292;0,00918994590982676;0,00703277452518744;"247/1263/3569/3586/5008/9173/9590/26253/27063/28984/54209/80149";12
"BP";"GO:0030330";"DNA damage response, signal transduction by p53 class mediator";"6/169";"106/17913";0,000505341833315708;0,0101567059261808;0,0077726053448351;"1026/1263/1820/7832/27063/28984";6
"BP";"GO:0051818";"disruption of cells of other organism involved in symbiotic interaction";"3/169";"17/17913";0,000508971797910971;0,0101628028929282;0,00777727116037335;"566/1511/1667";3
"BP";"GO:2000377";"regulation of reactive oxygen species metabolic process";"8/169";"194/17913";0,000517814144564827;0,0102722221535425;0,00786100625480848;"1026/2358/3586/6622/7057/9314/57126/80149";8
"BP";"GO:0045926";"negative regulation of growth";"9/169";"244/17913";0,000525965724973644;0,0103664400551706;0,00793310823069476;"247/1026/1511/2719/3586/4353/9518/54825/81501";9
"BP";"GO:1990748";"cellular detoxification";"6/169";"107/17913";0,000531239200641118;0,0103664400551706;0,00793310823069476;"3047/3048/4353/6280/8288/57016";6
"BP";"GO:1902806";"regulation of cell cycle G1/S phase transition";"8/169";"195/17913";0,000535703814985295;0,0103664400551706;0,00793310823069476;"1026/1263/1820/7832/8328/9314/9510/28984";8
"BP";"GO:0042036";"negative regulation of cytokine biosynthetic process";"4/169";"40/17913";0,000536136670611114;0,0103664400551706;0,00793310823069476;"3569/3586/7538/9314";4
"BP";"GO:0043281";"regulation of cysteine-type endopeptidase activity involved in apoptotic process";"8/169";"196/17913";0,000554090977456375;0,010646213434775;0,00814720993664753;"1490/3491/4318/6279/6280/6622/7057/9314";8
"BP";"GO:0014002";"astrocyte development";"4/169";"41/17913";0,000589761557959375;0,0111908171401608;0,00856397790276412;"2358/3569/6279/54209";4
"BP";"GO:1903053";"regulation of extracellular matrix organization";"4/169";"41/17913";0,000589761557959375;0,0111908171401608;0,00856397790276412;"3037/3569/28984/84830";4
"BP";"GO:0090026";"positive regulation of monocyte chemotaxis";"3/169";"18/17913";0,000606545871661101;0,0114382570242263;0,00875333580870243;"2358/5054/7941";3
"BP";"GO:0072401";"signal transduction involved in DNA integrity checkpoint";"5/169";"73/17913";0,000630548602949706;0,0117167790548089;0,00896647989688367;"1026/1263/1820/7832/28984";5
"BP";"GO:0072422";"signal transduction involved in DNA damage checkpoint";"5/169";"73/17913";0,000630548602949706;0,0117167790548089;0,00896647989688367;"1026/1263/1820/7832/28984";5
"BP";"GO:0009612";"response to mechanical stimulus";"8/169";"200/17913";0,000632821127346472;0,0117167790548089;0,00896647989688367;"2353/2354/4353/7057/7832/7852/8061/27063";8
"BP";"GO:1904019";"epithelial cell apoptotic process";"6/169";"111/17913";0,000645313565395047;0,0118374082927881;0,00905879363193467;"3569/3586/5054/7057/7538/28984";6
"BP";"GO:0017001";"antibiotic catabolic process";"4/169";"42/17913";0,000647085821569759;0,0118374082927881;0,00905879363193467;"4353/6622/8288/57016";4
"BP";"GO:0050707";"regulation of cytokine secretion";"8/169";"201/17913";0,000653851775129156;0,0118899831727355;0,0090990275223174;"247/3586/5008/9173/9590/26253/28984/80149";8
"BP";"GO:0072395";"signal transduction involved in cell cycle checkpoint";"5/169";"74/17913";0,000671144786581541;0,0121322326805125;0,00928441339768049;"1026/1263/1820/7832/28984";5
"BP";"GO:0002791";"regulation of peptide secretion";"13/169";"483/17913";0,000683554583782056;0,0122838779614952;0,0094004627280492;"247/3569/3586/5008/6279/9173/9590/26253/27063/28984/54209/80149/84830";13
"BP";"GO:0010470";"regulation of gastrulation";"4/169";"43/17913";0,000708249665703989;0,0125588316951541;0,00961087611161594;"3586/9314/22943/91663";4
"BP";"GO:0098754";"detoxification";"6/169";"113/17913";0,000709035547399654;0,0125588316951541;0,00961087611161594;"3047/3048/4353/6280/8288/57016";6
"BP";"GO:0002577";"regulation of antigen processing and presentation";"3/169";"19/17913";0,000715298433701087;0,0125588316951541;0,00961087611161594;"6556/7057/54209";3
"BP";"GO:0051546";"keratinocyte migration";"3/169";"19/17913";0,000715298433701087;0,0125588316951541;0,00961087611161594;"1839/3037/4318";3
"BP";"GO:0048608";"reproductive structure development";"12/169";"426/17913";0,000740648318575512;0,0129296035042754;0,00989461603342082;"174/247/1588/3491/3586/3726/4327/7262/8061/9021/9510/81930";12
"BP";"GO:0051091";"positive regulation of DNA-binding transcription factor activity";"9/169";"257/17913";0,00076223893231292;0,0132309087398635;0,0101251953867643;"3569/3586/4057/6279/6280/6283/8061/28984/55859";9
"BP";"GO:0032965";"regulation of collagen biosynthetic process";"4/169";"44/17913";0,000773393694798914;0,0132736951551162;0,0101579384751531;"1490/3569/4602/28984";4
"BP";"GO:0061014";"positive regulation of mRNA catabolic process";"4/169";"44/17913";0,000773393694798914;0,0132736951551162;0,0101579384751531;"7538/7832/80149/131405";4
"BP";"GO:0061458";"reproductive system development";"12/169";"429/17913";0,000787270495673606;0,0134363763367758;0,010282433230762;"174/247/1588/3491/3586/3726/4327/7262/8061/9021/9510/81930";12
"BP";"GO:0052548";"regulation of endopeptidase activity";"11/169";"370/17913";0,000793879578659853;0,0134739006266992;0,0103111493813072;"1490/3491/4057/4318/5054/6279/6280/6622/7057/9314/27344";11
"BP";"GO:0051851";"modification by host of symbiont morphology or physiology";"5/169";"77/17913";0,000804714812900807;0,0135823411790716;0,0103941355013242;"566/1511/1667/4057/80149";5
"BP";"GO:0002694";"regulation of leukocyte activation";"13/169";"492/17913";0,000810235508823543;0,0136003817552523;0,0104079413828634;"1026/1880/3569/3586/4602/6622/7057/8013/9173/54209/57126/80149/338339";13
"BP";"GO:0042832";"defense response to protozoan";"3/169";"20/17913";0,000835717841379811;0,0138404445030919;0,0105916538001093;"1667/3586/6556";3
"BP";"GO:0060713";"labyrinthine layer morphogenesis";"3/169";"20/17913";0,000835717841379811;0,0138404445030919;0,0105916538001093;"3491/3586/9021";3
"BP";"GO:0032570";"response to progesterone";"4/169";"45/17913";0,000842658814263536;0,0138404445030919;0,0105916538001093;"2353/2354/7057/8061";4
"BP";"GO:0071675";"regulation of mononuclear cell migration";"4/169";"45/17913";0,000842658814263536;0,0138404445030919;0,0105916538001093;"2358/5054/7057/7941";4
"BP";"GO:0022617";"extracellular matrix disassembly";"5/169";"78/17913";0,0008533583420452;0,0139412285291342;0,0106687806230363;"1511/3569/4318/4327/9507";5
"BP";"GO:0030100";"regulation of endocytosis";"9/169";"262/17913";0,000873507213846184;0,0141944922250005;0,0108625953076841;"566/2358/2719/5054/5657/6556/6622/22943/57126";9
"BP";"GO:0060711";"labyrinthine layer development";"4/169";"46/17913";0,000916186134245918;0,0147313086322173;0,0112734039011645;"3491/3586/3726/9021";4
"BP";"GO:0061614";"pri-miRNA transcription by RNA polymerase II";"4/169";"46/17913";0,000916186134245918;0,0147313086322173;0,0112734039011645;"2353/3586/8061/9314";4
"BP";"GO:0001562";"response to protozoan";"3/169";"21/17913";0,000968275877105809;0,0153817157069683;0,0117711398346719;"1667/3586/6556";3
"BP";"GO:0030728";"ovulation";"3/169";"21/17913";0,000968275877105809;0,0153817157069683;0,0117711398346719;"174/4327/9510";3
"BP";"GO:0071356";"cellular response to tumor necrosis factor";"9/169";"266/17913";0,000971741777887031;0,0153817157069683;0,0117711398346719;"3037/3604/7057/7538/9590/27063/51330/80149/81501";9
"BP";"GO:1904951";"positive regulation of establishment of protein localization";"12/169";"440/17913";0,000979788789416326;0,0154291482044684;0,011807438422646;"247/1263/3569/3586/5008/9173/9590/26253/27063/28984/54209/80149";12
"BP";"GO:0071902";"positive regulation of protein serine/threonine kinase activity";"10/169";"322/17913";0,000986609355520476;0,0154568799031541;0,0118286606132846;"1847/1852/4057/6283/6622/7057/7852/9518/22943/28984";10
"BP";"GO:0051702";"interaction with symbiont";"5/169";"81/17913";0,00101247451660823;0,0157811716746845;0,012076830834516;"566/1511/1667/4057/80149";5
"BP";"GO:0043491";"protein kinase B signaling";"9/169";"268/17913";0,00102412032318773;0,0158816628798909;0,0121537335709321;"374/1263/1839/1969/5008/7057/9314/9518/84830";9
"BP";"GO:0071158";"positive regulation of cell cycle arrest";"5/169";"82/17913";0,00107010804016061;0,016493455574458;0,0126219191423451;"1026/1263/1820/7832/28984";5
"BP";"GO:0034249";"negative regulation of cellular amide metabolic process";"8/169";"217/17913";0,00107436911925275;0,016493455574458;0,0126219191423451;"6622/7538/7832/10394/10642/10643/80149/131405";8
"BP";"GO:0001667";"ameboidal-type cell migration";"12/169";"446/17913";0,0011003774283008;0,0168082652172948;0,0128628329908215;"1839/1969/2719/3037/3164/4318/7057/9314/9590/28984/80149/84830";12
"BP";"GO:0070372";"regulation of ERK1 and ERK2 cascade";"9/169";"271/17913";0,00110696341562553;0,0168247424613731;0,0128754425038193;"467/1490/1880/1969/2358/3491/9314/9590/54209";9
"BP";"GO:0042744";"hydrogen peroxide catabolic process";"3/169";"22/17913";0,00111342807263824;0,016839221593613;0,0128865229251148;"4353/6622/8288";3
"BP";"GO:0010712";"regulation of collagen metabolic process";"4/169";"49/17913";0,00116375352994844;0,0172935465286566;0,0132342034077514;"1490/3569/4602/28984";4
"BP";"GO:1904707";"positive regulation of vascular smooth muscle cell proliferation";"4/169";"49/17913";0,00116375352994844;0,0172935465286566;0,0132342034077514;"3586/4318/8013/9510";4
"BP";"GO:0050728";"negative regulation of inflammatory response";"7/169";"170/17913";0,00116590566708952;0,0172935465286566;0,0132342034077514;"1588/2358/3586/8993/9021/9314/80149";7
"BP";"GO:0001503";"ossification";"11/169";"388/17913";0,00116611148442006;0,0172935465286566;0,0132342034077514;"374/1280/1490/1969/2719/3491/3569/3726/4057/4318/22943";11
"BP";"GO:0019882";"antigen processing and presentation";"8/169";"220/17913";0,001173098035668;0,0173131135215737;0,0132491774076717;"1062/5865/6556/7057/11004/24137/54209/81930";8
"BP";"GO:0071621";"granulocyte chemotaxis";"5/169";"84/17913";0,00119263114217777;0,0175167699007359;0,0134050291840932;"1907/6279/6280/6283/7057";5
"BP";"GO:0007596";"blood coagulation";"10/169";"331/17913";0,00121395397059814;0,0177446381826666;0,0135794095628228;"3047/3048/3569/4778/5054/5657/7057/23764/57126/84830";10
"BP";"GO:0060143";"positive regulation of syncytium formation by plasma membrane fusion";"3/169";"23/17913";0,00127161402828039;0,0184112836796047;0,0140895722464991;"9518/54209/81501";3
"BP";"GO:0071677";"positive regulation of mononuclear cell migration";"3/169";"23/17913";0,00127161402828039;0,0184112836796047;0,0140895722464991;"2358/5054/7941";3
"BP";"GO:0010466";"negative regulation of peptidase activity";"8/169";"223/17913";0,00127894093675788;0,0184300215179024;0,0141039117206516;"2719/4057/4318/5054/6622/7057/9314/27344";8
"BP";"GO:0044773";"mitotic DNA damage checkpoint";"5/169";"86/17913";0,00132523859494946;0,0189682464357315;0,0145157982026909;"1026/1263/1820/7832/28984";5
"BP";"GO:0050708";"regulation of protein secretion";"12/169";"456/17913";0,00132870858829674;0,0189682464357315;0,0145157982026909;"247/3569/3586/5008/9173/9590/26253/27063/28984/54209/80149/84830";12
"BP";"GO:0044706";"multi-multicellular organism process";"8/169";"225/17913";0,00135363333244611;0,0192025886682648;0,0146951328907627;"796/2182/2353/2354/3726/4318/8061/23764";8
"BP";"GO:0007599";"hemostasis";"10/169";"336/17913";0,00135769530354998;0,0192025886682648;0,0146951328907627;"3047/3048/3569/4778/5054/5657/7057/23764/57126/84830";10
"BP";"GO:0050817";"coagulation";"10/169";"337/17913";0,00138804442657392;0,0193781277269476;0,0148294673724009;"3047/3048/3569/4778/5054/5657/7057/23764/57126/84830";10
"BP";"GO:0001892";"embryonic placenta development";"5/169";"87/17913";0,00139547891978019;0,0193781277269476;0,0148294673724009;"3491/3586/3726/7262/9021";5
"BP";"GO:0072676";"lymphocyte migration";"5/169";"87/17913";0,00139547891978019;0,0193781277269476;0,0148294673724009;"326/1667/1880/6364/84830";5
"BP";"GO:2000117";"negative regulation of cysteine-type endopeptidase activity";"5/169";"87/17913";0,00139547891978019;0,0193781277269476;0,0148294673724009;"4057/4318/6622/7057/9314";5
"BP";"GO:0048143";"astrocyte activation";"3/169";"24/17913";0,00144325772704648;0,0199509156385836;0,0152678038188627;"2358/3569/54209";3
"BP";"GO:1904035";"regulation of epithelial cell apoptotic process";"5/169";"88/17913";0,00146842696351551;0,0200269838104459;0,0153260163814283;"3569/5054/7057/7538/28984";5
"BP";"GO:1904705";"regulation of vascular smooth muscle cell proliferation";"5/169";"88/17913";0,00146842696351551;0,0200269838104459;0,0153260163814283;"1026/3586/4318/8013/9510";5
"BP";"GO:1990874";"vascular smooth muscle cell proliferation";"5/169";"88/17913";0,00146842696351551;0,0200269838104459;0,0153260163814283;"1026/3586/4318/8013/9510";5
"BP";"GO:0090068";"positive regulation of cell cycle process";"9/169";"283/17913";0,0014943610049258;0,0202901016446592;0,015527372126036;"1026/1263/1490/1820/6755/7832/9510/9787/28984";9
"BP";"GO:0061013";"regulation of mRNA catabolic process";"7/169";"178/17913";0,00151971029703797;0,0205143778949195;0,0156990036367012;"6556/7538/7832/10642/10643/80149/131405";7
"BP";"GO:0042770";"signal transduction in response to DNA damage";"6/169";"131/17913";0,00152650812161977;0,0205143778949195;0,0156990036367012;"1026/1263/1820/7832/27063/28984";6
"BP";"GO:0034612";"response to tumor necrosis factor";"9/169";"284/17913";0,00153102394764047;0,0205143778949195;0,0156990036367012;"3037/3604/7057/7538/9590/27063/51330/80149/81501";9
"BP";"GO:0032964";"collagen biosynthetic process";"4/169";"53/17913";0,00156207341773874;0,0208325389561581;0,0159424822195287;"1490/3569/4602/28984";4
"BP";"GO:0042063";"gliogenesis";"9/169";"285/17913";0,00156840718818866;0,0208325389561581;0,0159424822195287;"374/566/1880/2358/3569/4602/6279/7852/54209";9
"BP";"GO:0044774";"mitotic DNA integrity checkpoint";"5/169";"90/17913";0,00162269798898954;0,0212644690727711;0,0162730246569471;"1026/1263/1820/7832/28984";5
"BP";"GO:0060669";"embryonic placenta morphogenesis";"3/169";"25/17913";0,00162876784387183;0,0212644690727711;0,0162730246569471;"3491/3586/9021";3
"BP";"GO:0090025";"regulation of monocyte chemotaxis";"3/169";"25/17913";0,00162876784387183;0,0212644690727711;0,0162730246569471;"2358/5054/7941";3
"BP";"GO:1900120";"regulation of receptor binding";"3/169";"25/17913";0,00162876784387183;0,0212644690727711;0,0162730246569471;"3586/4318/7262";3
"BP";"GO:0070371";"ERK1 and ERK2 cascade";"9/169";"289/17913";0,00172534939518746;0,022429542137437;0,0171646181711595;"467/1490/1880/1969/2358/3491/9314/9590/54209";9
"BP";"GO:0048871";"multicellular organismal homeostasis";"12/169";"472/17913";0,0017749173361687;0,0229761544999804;0,0175829232989771;"796/1280/1490/1907/2827/3037/3569/4057/6556/7852/8013/81501";12
"BP";"GO:0032722";"positive regulation of chemokine production";"4/169";"55/17913";0,00179300023958613;0,0231123026663951;0,0176871131784179;"247/566/3569/9173";4
"BP";"GO:0032967";"positive regulation of collagen biosynthetic process";"3/169";"26/17913";0,00182853804993534;0,0232749477727455;0,0178115803267354;"1490/4602/28984";3
"BP";"GO:0034114";"regulation of heterotypic cell-cell adhesion";"3/169";"26/17913";0,00182853804993534;0,0232749477727455;0,0178115803267354;"3586/9314/91663";3
"BP";"GO:0060142";"regulation of syncytium formation by plasma membrane fusion";"3/169";"26/17913";0,00182853804993534;0,0232749477727455;0,0178115803267354;"9518/54209/81501";3
"BP";"GO:0050731";"positive regulation of peptidyl-tyrosine phosphorylation";"7/169";"184/17913";0,00183609244295636;0,0232749477727455;0,0178115803267354;"374/1839/3569/4739/5008/9021/54209";7
"BP";"GO:0051591";"response to cAMP";"5/169";"93/17913";0,00187599308354417;0,0235850159268619;0,0180488656640745;"374/2353/2354/4327/8061";5
"BP";"GO:1901216";"positive regulation of neuron death";"5/169";"93/17913";0,00187599308354417;0,0235850159268619;0,0180488656640745;"2353/4602/4605/6622/22943";5
"BP";"GO:0044344";"cellular response to fibroblast growth factor stimulus";"6/169";"138/17913";0,00198854998162485;0,0248697234117265;0,0190320116108001;"1490/3164/6622/7057/7538/131405";6
"BP";"GO:0010631";"epithelial cell migration";"10/169";"354/17913";0,00199446227033486;0,0248697234117265;0,0190320116108001;"1839/1969/3037/3164/4318/7057/9314/28984/80149/84830";10
"BP";"GO:0071900";"regulation of protein serine/threonine kinase activity";"12/169";"479/17913";0,00200562252947959;0,0249072228762607;0,0190607087632613;"1026/1847/1850/1852/4057/6283/6622/7057/7852/9518/22943/28984";12
"BP";"GO:0010714";"positive regulation of collagen metabolic process";"3/169";"27/17913";0,00204294731216242;0,0252680325451668;0,0193368249746974;"1490/4602/28984";3
"BP";"GO:0090132";"epithelium migration";"10/169";"357/17913";0,00212087894812409;0,0261261499456415;0,0199935150415263;"1839/1969/3037/3164/4318/7057/9314/28984/80149/84830";10
"BP";"GO:0042093";"T-helper cell differentiation";"4/169";"58/17913";0,00218222369603886;0,0267738690417619;0,020489193950126;"1880/3569/4602/80149";4
"BP";"GO:0045807";"positive regulation of endocytosis";"6/169";"141/17913";0,0022160850053931;0,0270805587659037;0,020723893882013;"566/2358/2719/5054/6556/6622";6
"BP";"GO:0019932";"second-messenger-mediated signaling";"10/169";"360/17913";0,00225368472869848;0,0273309463553775;0,0209155075735355;"566/796/1907/2358/2827/6364/7057/7852/54209/389692";10
"BP";"GO:0001773";"myeloid dendritic cell activation";"3/169";"28/17913";0,00227236018797574;0,0273309463553775;0,0209155075735355;"3586/81501/338339";3
"BP";"GO:0048730";"epidermis morphogenesis";"3/169";"28/17913";0,00227236018797574;0,0273309463553775;0,0209155075735355;"7053/9314/94234";3
"BP";"GO:0061157";"mRNA destabilization";"3/169";"28/17913";0,00227236018797574;0,0273309463553775;0,0209155075735355;"7538/80149/131405";3
"BP";"GO:0072678";"T cell migration";"4/169";"59/17913";0,00232393593954944;0,0277329074036076;0,0212231156321518;"326/1667/1880/6364";4
"BP";"GO:0090303";"positive regulation of wound healing";"4/169";"59/17913";0,00232393593954944;0,0277329074036076;0,0212231156321518;"1839/5054/7057/7852";4
"BP";"GO:0042136";"neurotransmitter biosynthetic process";"5/169";"98/17913";0,00236078911450231;0,0280630768280332;0,0214757838349769;"747/3586/9314/10394/80149";5
"BP";"GO:0090130";"tissue migration";"10/169";"363/17913";0,0023931117045796;0,0283370397577158;0,021685438987643;"1839/1969/3037/3164/4318/7057/9314/28984/80149/84830";10
"BP";"GO:0007565";"female pregnancy";"7/169";"193/17913";0,00240392150499854;0,028355135898728;0,0216992873911878;"796/2182/2353/2354/3726/4318/8061";7
"BP";"GO:1901652";"response to peptide";"12/169";"491/17913";0,0024581618878302;0,0286042901590817;0,0218899572549989;"374/1490/2358/3164/3586/4318/7832/8013/9314/9518/54209/245972";12
"BP";"GO:0070301";"cellular response to hydrogen peroxide";"5/169";"99/17913";0,00246772444254254;0,0286042901590817;0,0218899572549989;"3569/3586/4602/8013/9314";5
"BP";"GO:0098869";"cellular oxidant detoxification";"5/169";"99/17913";0,00246772444254254;0,0286042901590817;0,0218899572549989;"3047/3048/4353/6280/8288";5
"BP";"GO:0002294";"CD4-positive, alpha-beta T cell differentiation involved in immune response";"4/169";"60/17913";0,00247186009885354;0,0286042901590817;0,0218899572549989;"1880/3569/4602/80149";4
"BP";"GO:0030593";"neutrophil chemotaxis";"4/169";"60/17913";0,00247186009885354;0,0286042901590817;0,0218899572549989;"1907/6279/6280/6283";4
"BP";"GO:0070528";"protein kinase C signaling";"3/169";"29/17913";0,00251712711536012;0,0290182012733026;0,022206710320615;"566/9590/91663";3
"BP";"GO:0071774";"response to fibroblast growth factor";"6/169";"145/17913";0,00254937049135295;0,0292794242521927;0,0224066159924611;"1490/3164/6622/7057/7538/131405";6
"BP";"GO:0002495";"antigen processing and presentation of peptide antigen via MHC class II";"5/169";"100/17913";0,0025781363866971;0,0294989013534069;0,022574574866368;"1062/11004/24137/54209/81930";5
"BP";"GO:0045637";"regulation of myeloid cell differentiation";"8/169";"250/17913";0,00261432241285503;0,0297141819760095;0,0227393223081117;"2353/4057/4778/7057/7538/8013/54209/81501";8
"BP";"GO:0002287";"alpha-beta T cell activation involved in immune response";"4/169";"61/17913";0,00262613064927089;0,0297141819760095;0,0227393223081117;"1880/3569/4602/80149";4
"BP";"GO:0002293";"alpha-beta T cell differentiation involved in immune response";"4/169";"61/17913";0,00262613064927089;0,0297141819760095;0,0227393223081117;"1880/3569/4602/80149";4
"BP";"GO:0071236";"cellular response to antibiotic";"6/169";"147/17913";0,00272949142218961;0,0307697280250526;0,023547098266394;"3569/3586/4602/8013/9314/80149";6
"BP";"GO:0017148";"negative regulation of translation";"7/169";"198/17913";0,00277304428523899;0,0309690556690823;0,0236996373989256;"7538/7832/10394/10642/10643/80149/131405";7
"BP";"GO:0032689";"negative regulation of interferon-gamma production";"3/169";"30/17913";0,00277758469830722;0,0309690556690823;0,0236996373989256;"3586/9173/80149";3
"BP";"GO:0050779";"RNA destabilization";"3/169";"30/17913";0,00277758469830722;0,0309690556690823;0,0236996373989256;"7538/80149/131405";3
"BP";"GO:1901214";"regulation of neuron death";"9/169";"313/17913";0,00295128423143621;0,032700054565066;0,0250243160268797;"2353/3586/4602/4605/6622/7832/8013/22943/94234";9
"BP";"GO:0035914";"skeletal muscle cell differentiation";"4/169";"63/17913";0,00295424388214671;0,032700054565066;0,0250243160268797;"467/2353/7832/23764";4
"BP";"GO:0018198";"peptidyl-cysteine modification";"3/169";"31/17913";0,00305405598770459;0,0335616584260343;0,0256836741714953;"5865/6279/6280";3
"BP";"GO:0033687";"osteoblast proliferation";"3/169";"31/17913";0,00305405598770459;0,0335616584260343;0,0256836741714953;"3491/3726/4057";3
"BP";"GO:1903531";"negative regulation of secretion by cell";"7/169";"202/17913";0,0030984805236696;0,0339278064509341;0,0259638756576879;"3586/5008/6622/28984/80149/84830/255057";7
"BP";"GO:0001890";"placenta development";"6/169";"151/17913";0,00311817881904035;0,0340215581863152;0,0260356208913106;"3491/3586/3726/7262/8061/9021";6
"BP";"GO:0006801";"superoxide metabolic process";"4/169";"65/17913";0,0033093309250193;0,0358510850210424;0,0274356998300405;"2358/4353/10394/57126";4
"BP";"GO:0072577";"endothelial cell apoptotic process";"4/169";"65/17913";0,0033093309250193;0,0358510850210424;0,0274356998300405;"3586/5054/7057/28984";4
"BP";"GO:0046685";"response to arsenic-containing substance";"3/169";"32/17913";0,00334685075773317;0,0361294313246461;0,0276487094399307;"467/1026/80149";3
"BP";"GO:0045765";"regulation of angiogenesis";"10/169";"383/17913";0,00350972390732923;0,0377542483693338;0,0288921304602603;"1969/3569/3586/5054/7057/7852/9314/28984/51330/80149";10
"BP";"GO:0071156";"regulation of cell cycle arrest";"5/169";"108/17913";0,00359439519421188;0,0385293940993589;0,0294853249357141;"1026/1263/1820/7832/28984";5
"BP";"GO:0007178";"transmembrane receptor protein serine/threonine kinase signaling pathway";"9/169";"323/17913";0,00363084522067452;0,038694721842414;0,0296118450209325;"174/2353/2719/3491/3547/7057/9518/22943/203100";9
"BP";"GO:0010837";"regulation of keratinocyte proliferation";"3/169";"33/17913";0,00365626577783607;0,038694721842414;0,0296118450209325;"374/3037/7538";3
"BP";"GO:0042554";"superoxide anion generation";"3/169";"33/17913";0,00365626577783607;0,038694721842414;0,0296118450209325;"2358/10394/57126";3
"BP";"GO:0007519";"skeletal muscle tissue development";"6/169";"156/17913";0,00366048268820217;0,038694721842414;0,0296118450209325;"467/1134/2353/7832/22943/23764";6
"BP";"GO:0045861";"negative regulation of proteolysis";"9/169";"324/17913";0,00370504550153762;0,0390307379558532;0,0298689875096735;"2719/3586/4057/4318/5054/6622/7057/9314/27344";9
"BP";"GO:0033690";"positive regulation of osteoblast proliferation";"2/169";"10/17913";0,00378868797723824;0,0391028438191312;0,0299241678429806;"3491/4057";2
"BP";"GO:0051315";"attachment of mitotic spindle microtubules to kinetochore";"2/169";"10/17913";0,00378868797723824;0,0391028438191312;0,0299241678429806;"1062/11004";2
"BP";"GO:0051583";"dopamine uptake involved in synaptic transmission";"2/169";"10/17913";0,00378868797723824;0,0391028438191312;0,0299241678429806;"5865/6622";2
"BP";"GO:0051934";"catecholamine uptake involved in synaptic transmission";"2/169";"10/17913";0,00378868797723824;0,0391028438191312;0,0299241678429806;"5865/6622";2
"BP";"GO:0060213";"positive regulation of nuclear-transcribed mRNA poly(A) tail shortening";"2/169";"10/17913";0,00378868797723824;0,0391028438191312;0,0299241678429806;"7538/7832";2
"BP";"GO:0070942";"neutrophil mediated cytotoxicity";"2/169";"10/17913";0,00378868797723824;0,0391028438191312;0,0299241678429806;"566/1511";2
"BP";"GO:0008544";"epidermis development";"11/169";"452/17913";0,00381421961344601;0,0392338078083419;0,0300243904358093;"247/1490/1969/2012/5948/7053/7538/9314/22943/94234/286887";11
"BP";"GO:0010951";"negative regulation of endopeptidase activity";"7/169";"210/17913";0,00383631740023351;0,039328690126555;0,0300970008686635;"4057/4318/5054/6622/7057/9314/27344";7
"BP";"GO:0042698";"ovulation cycle";"4/169";"68/17913";0,0038948008184839;0,0396736598536211;0,0303609952743191;"174/3037/4327/9510";4
"BP";"GO:0043488";"regulation of mRNA stability";"6/169";"158/17913";0,00389594041115756;0,0396736598536211;0,0303609952743191;"6556/7538/10642/10643/80149/131405";6
"BP";"GO:0022407";"regulation of cell-cell adhesion";"10/169";"389/17913";0,00391522771575295;0,039737610204735;0,0304099344524822;"3037/3569/3586/4602/8013/9314/28984/80149/84830/91663";10
"BP";"GO:2001024";"negative regulation of response to drug";"3/169";"34/17913";0,00398258508032108;0,040287408676758;0,0308306778089687;"3586/6622/8013";3
"BP";"GO:0046677";"response to antibiotic";"9/169";"328/17913";0,00401384084712511;0,0404695834586376;0,0309700903993916;"374/3569/3586/4602/6279/8013/8061/9314/80149";9
"BP";"GO:0007162";"negative regulation of cell adhesion";"8/169";"271/17913";0,00426176716587165;0,042827956222822;0,0327748783774271;"3586/5054/7057/9314/28984/80149/84830/91663";8
"BP";"GO:0051817";"modification of morphology or physiology of other organism involved in symbiotic interaction";"5/169";"113/17913";0,00435945038777338;0,0436659702775334;0,0334161839904907;"566/1511/1667/4057/80149";5
"BP";"GO:0006417";"regulation of translation";"10/169";"397/17913";0,00451275587469435;0,044211099333276;0,0338333539905955;"326/3569/7057/7538/7832/10394/10642/10643/80149/131405";10
"BP";"GO:0043487";"regulation of RNA stability";"6/169";"163/17913";0,00453360704161004;0,044211099333276;0,0338333539905955;"6556/7538/10642/10643/80149/131405";6
"BP";"GO:0001707";"mesoderm formation";"4/169";"71/17913";0,00454670677682377;0,044211099333276;0,0338333539905955;"1969/8013/9314/22943";4
"BP";"GO:1903036";"positive regulation of response to wounding";"4/169";"71/17913";0,00454670677682377;0,044211099333276;0,0338333539905955;"1839/5054/7057/7852";4
"BP";"GO:1903313";"positive regulation of mRNA metabolic process";"4/169";"71/17913";0,00454670677682377;0,044211099333276;0,0338333539905955;"7538/7832/80149/131405";4
"BP";"GO:1903556";"negative regulation of tumor necrosis factor superfamily cytokine production";"4/169";"71/17913";0,00454670677682377;0,044211099333276;0,0338333539905955;"3586/4057/54209/80149";4
"BP";"GO:0002604";"regulation of dendritic cell antigen processing and presentation";"2/169";"11/17913";0,00460200641177799;0,044211099333276;0,0338333539905955;"6556/7057";2
"BP";"GO:0009629";"response to gravity";"2/169";"11/17913";0,00460200641177799;0,044211099333276;0,0338333539905955;"2353/8061";2
"BP";"GO:0010755";"regulation of plasminogen activation";"2/169";"11/17913";0,00460200641177799;0,044211099333276;0,0338333539905955;"5054/7057";2
"BP";"GO:0032494";"response to peptidoglycan";"2/169";"11/17913";0,00460200641177799;0,044211099333276;0,0338333539905955;"3569/54209";2
"BP";"GO:0045217";"cell-cell junction maintenance";"2/169";"11/17913";0,00460200641177799;0,044211099333276;0,0338333539905955;"5657/57126";2
"BP";"GO:0072672";"neutrophil extravasation";"2/169";"11/17913";0,00460200641177799;0,044211099333276;0,0338333539905955;"5657/57126";2
"BP";"GO:1901201";"regulation of extracellular matrix assembly";"2/169";"11/17913";0,00460200641177799;0,044211099333276;0,0338333539905955;"3037/28984";2
"BP";"GO:0060047";"heart contraction";"8/169";"275/17913";0,0046504391523095;0,0444683765060032;0,0340302400619633;"1490/1839/1907/3757/4635/7852/30820/80149";8
"BP";"GO:0048255";"mRNA stabilization";"3/169";"36/17913";0,00468701055153291;0,0444683765060032;0,0340302400619633;"6556/7538/10642";3
"BP";"GO:1900026";"positive regulation of substrate adhesion-dependent cell spreading";"3/169";"36/17913";0,00468701055153291;0,0444683765060032;0,0340302400619633;"3037/4739/91663";3
"BP";"GO:1905521";"regulation of macrophage migration";"3/169";"36/17913";0,00468701055153291;0,0444683765060032;0,0340302400619633;"1588/7057/54209";3
"BP";"GO:0032677";"regulation of interleukin-8 production";"4/169";"72/17913";0,00477934712544407;0,0449258629791743;0,0343803399695912;"3586/5054/9314/10394";4
"BP";"GO:0050000";"chromosome localization";"4/169";"72/17913";0,00477934712544407;0,0449258629791743;0,0343803399695912;"1062/9787/11004/81930";4
"BP";"GO:0051303";"establishment of chromosome localization";"4/169";"72/17913";0,00477934712544407;0,0449258629791743;0,0343803399695912;"1062/9787/11004/81930";4
"BP";"GO:0060538";"skeletal muscle organ development";"6/169";"165/17913";0,00480909093931504;0,0450667877902069;0,0344881852638641;"467/1134/2353/7832/22943/23764";6
"BP";"GO:1903706";"regulation of hemopoiesis";"11/169";"468/17913";0,00493899973375845;0,0461426427725751;0,035311503005561;"2353/4057/4602/4778/5008/7057/7538/8013/54209/80149/81501";11
"BP";"GO:0048332";"mesoderm morphogenesis";"4/169";"73/17913";0,0050198571847191;0,0466129595723916;0,0356714215557867;"1969/8013/9314/22943";4
"BP";"GO:0061045";"negative regulation of wound healing";"4/169";"73/17913";0,0050198571847191;0,0466129595723916;0,0356714215557867;"1026/5054/7057/84830";4
"BP";"GO:0001704";"formation of primary germ layer";"5/169";"117/17913";0,00505002791835698;0,0467510160320623;0,0357770717916136;"1969/4318/8013/9314/22943";5
"BP";"GO:0045124";"regulation of bone resorption";"3/169";"37/17913";0,00506562344771497;0,0467537149026261;0,0357791371517728;"796/3569/81501";3
"BP";"GO:0043280";"positive regulation of cysteine-type endopeptidase activity involved in apoptotic process";"5/169";"118/17913";0,00523411287954525;0,0481632977319601;0,0368578462443564;"1490/3491/6279/6280/6622";5
"BP";"GO:0043367";"CD4-positive, alpha-beta T cell differentiation";"4/169";"74/17913";0,00526835503604124;0,04833280671203;0,0369875660978271;"1880/3569/4602/80149";4
"BP";"GO:0022408";"negative regulation of cell-cell adhesion";"6/169";"169/17913";0,00539675717698204;0,0487406678888868;0,0372996893380025;"3586/9314/28984/80149/84830/91663";6
"BP";"GO:1904037";"positive regulation of epithelial cell apoptotic process";"3/169";"38/17913";0,00546215458680206;0,0487406678888868;0,0372996893380025;"3569/7057/28984";3
"BP";"GO:0002468";"dendritic cell antigen processing and presentation";"2/169";"12/17913";0,00548831088503341;0,0487406678888868;0,0372996893380025;"6556/7057";2
"BP";"GO:0044793";"negative regulation by host of viral process";"2/169";"12/17913";0,00548831088503341;0,0487406678888868;0,0372996893380025;"4057/80149";2
"BP";"GO:0045346";"regulation of MHC class II biosynthetic process";"2/169";"12/17913";0,00548831088503341;0,0487406678888868;0,0372996893380025;"566/3586";2
"BP";"GO:0045779";"negative regulation of bone resorption";"2/169";"12/17913";0,00548831088503341;0,0487406678888868;0,0372996893380025;"796/3569";2
"BP";"GO:0051238";"sequestering of metal ion";"2/169";"12/17913";0,00548831088503341;0,0487406678888868;0,0372996893380025;"6279/6280";2
"BP";"GO:0051873";"killing by host of symbiont cells";"2/169";"12/17913";0,00548831088503341;0,0487406678888868;0,0372996893380025;"566/1511";2
"BP";"GO:0060211";"regulation of nuclear-transcribed mRNA poly(A) tail shortening";"2/169";"12/17913";0,00548831088503341;0,0487406678888868;0,0372996893380025;"7538/7832";2
"BP";"GO:0060670";"branching involved in labyrinthine layer morphogenesis";"2/169";"12/17913";0,00548831088503341;0,0487406678888868;0,0372996893380025;"3586/9021";2
"BP";"GO:2000052";"positive regulation of non-canonical Wnt signaling pathway";"2/169";"12/17913";0,00548831088503341;0,0487406678888868;0,0372996893380025;"2719/22943";2
"BP";"GO:0006941";"striated muscle contraction";"6/169";"170/17913";0,00555154442734396;0,0491593281899588;0,0376200768058915;"1134/1490/3757/4635/7852/80149";6
"BP";"GO:0003015";"heart process";"8/169";"284/17913";0,00562437269064702;0,0496602848841811;0,038003443096827;"1490/1839/1907/3757/4635/7852/30820/80149";8
"BP";"GO:0018108";"peptidyl-tyrosine phosphorylation";"9/169";"346/17913";0,00566103236748546;0,0498399247339138;0,0381409157839685;"374/1839/1969/3569/4739/5008/9021/9833/54209";9
"CC";"GO:0034774";"secretory granule lumen";"20/173";"321/18678";1,96995977866278e-11;4,66057390891992e-09;4,20502909075482e-09;"566/1118/1511/1667/1668/1669/4057/4353/5054/5657/6036/6037/6279/6280/6283/7057/8288/8993/10321/10394";20
"CC";"GO:0060205";"cytoplasmic vesicle lumen";"20/173";"338/18678";4,98550127513766e-11;4,66057390891992e-09;4,20502909075482e-09;"566/1118/1511/1667/1668/1669/4057/4353/5054/5657/6036/6037/6279/6280/6283/7057/8288/8993/10321/10394";20
"CC";"GO:0031983";"vesicle lumen";"20/173";"339/18678";5,25628636344352e-11;4,66057390891992e-09;4,20502909075482e-09;"566/1118/1511/1667/1668/1669/4057/4353/5054/5657/6036/6037/6279/6280/6283/7057/8288/8993/10321/10394";20
"CC";"GO:0070820";"tertiary granule";"13/173";"164/18678";4,2731835673127e-09;2,84166707226294e-07;2,56391014038762e-07;"1088/1118/2204/2358/4057/4318/6556/8972/8993/10321/10394/57126/338339";13
"CC";"GO:0042581";"specific granule";"12/173";"160/18678";3,19432907012375e-08;1,69938306530584e-06;1,5332779536594e-06;"1088/1118/1669/2204/2358/4057/8993/10321/10394/57126/222487/338339";12
"CC";"GO:0031012";"extracellular matrix";"19/173";"468/18678";7,41339695192453e-08;3,28660598201987e-06;2,96535878076981e-06;"1280/1490/1511/1667/2719/3491/4318/4327/5054/5553/5657/6279/6280/7057/9507/9510/9518/10321/10394";19
"CC";"GO:0062023";"collagen-containing extracellular matrix";"17/173";"399/18678";1,90123050902274e-07;7,22467593428641e-06;6,51850460236368e-06;"1280/1490/1511/1667/2719/3491/4318/5054/5553/5657/6279/6280/7057/9507/9510/9518/10394";17
"CC";"GO:0005766";"primary lysosome";"10/173";"155/18678";1,8486913424704e-06;5,41545068156392e-05;4,88612091569677e-05;"566/1088/1511/1667/1668/1669/4353/5657/6036/6037";10
"CC";"GO:0042582";"azurophil granule";"10/173";"155/18678";1,8486913424704e-06;5,41545068156392e-05;4,88612091569677e-05;"566/1088/1511/1667/1668/1669/4353/5657/6036/6037";10
"CC";"GO:0035578";"azurophil granule lumen";"8/173";"91/18678";2,03588371487366e-06;5,41545068156392e-05;4,88612091569677e-05;"566/1511/1667/1668/4353/5657/6036/6037";8
"CC";"GO:0070821";"tertiary granule membrane";"7/173";"73/18678";5,04495235637743e-06;0,000121996120617854;0,000110071687775508;"1088/2204/2358/6556/8972/57126/338339";7
"CC";"GO:1904724";"tertiary granule lumen";"6/173";"55/18678";1,1521910762883e-05;0,000255402355243906;0,00023043821525766;"1118/4057/4318/8993/10321/10394";6
"CC";"GO:0035580";"specific granule lumen";"6/173";"62/18678";2,31594782535175e-05;0,000473878555033513;0,000427559598526478;"1118/1669/4057/8993/10321/10394";6
"CC";"GO:0005775";"vacuolar lumen";"9/173";"171/18678";3,13961865075355e-05;0,000596527543643175;0,000538220340129181;"566/1511/1667/1668/2719/4353/5657/6036/6037";9
"CC";"GO:0035579";"specific granule membrane";"6/173";"91/18678";0,000201277223275628;0,00356931609275448;0,00322043557241005;"1088/2204/2358/57126/222487/338339";6
"CC";"GO:0101003";"ficolin-1-rich granule membrane";"5/173";"61/18678";0,000251655447812455;0,00418377181988206;0,00377483171718682;"2204/2358/6556/8972/338339";5
"CC";"GO:0030667";"secretory granule membrane";"10/173";"293/18678";0,000415737619378059;0,00650507098556257;0,00586923697945495;"566/1088/2204/2358/6556/6622/8972/57126/222487/338339";10
"CC";"GO:0071682";"endocytic vesicle lumen";"3/173";"20/18678";0,000792766992377975;0,011715334442919;0,0105702265650397;"4057/4353/8993";3
"CC";"GO:0101002";"ficolin-1-rich granule";"7/173";"185/18678";0,00171017149633686;0,023942400948716;0,0216021662695182;"2204/2358/4318/5553/6556/8972/338339";7
"CC";"GO:0044853";"plasma membrane raft";"5/173";"106/18678";0,00307039325860699;0,040836230339473;0,0368447191032839;"3037/5657/57126/81930/84830";5
"MF";"GO:0005539";"glycosaminoglycan binding";"10/167";"199/16969";2,81326442720334e-05;0,00585360794007758;0,00512339630695944;"566/1511/1839/4057/4353/5553/7057/8993/9510/54209";10
"MF";"GO:0001228";"DNA-binding transcription activator activity, RNA polymerase II-specific";"14/167";"390/16969";3,23403753595446e-05;0,00585360794007758;0,00512339630695944;"326/467/2353/2354/3164/3726/4602/4605/8013/8061/9314/23764/64651/389692";14
"MF";"GO:0008201";"heparin binding";"8/167";"148/16969";0,00010904786749238;0,0131584426774138;0,0115169853035812;"566/1511/1839/4057/4353/5553/7057/9510";8
"MF";"GO:0050786";"RAGE receptor binding";"3/167";"11/16969";0,00014576712423558;0,01319192474332;0,0115462906302394;"6279/6280/6283";3
"MF";"GO:1901681";"sulfur compound binding";"9/167";"221/16969";0,000346347212637906;0,0250755381949844;0,0219474760008441;"566/1511/1839/4057/4353/5553/7057/8435/9510";9
"MF";"GO:0008083";"growth factor activity";"7/167";"147/16969";0,000633434099670609;0,0382171906801267;0,0334497656141848;"1490/1839/3569/3586/5008/9518/22943";7
"MF";"GO:0008236";"serine-type peptidase activity";"7/167";"158/16969";0,000969374507010534;0,0432743360535413;0,037876054527816;"566/1511/4057/4318/5657/23430/203100";7
"MF";"GO:0017171";"serine hydrolase activity";"7/167";"163/16969";0,00116224884746323;0,0432743360535413;0,037876054527816;"566/1511/4057/4318/5657/23430/203100";7
"MF";"GO:0045182";"translation regulator activity";"4/167";"48/16969";0,00125669825009907;0,0432743360535413;0,037876054527816;"326/10642/10643/131405";4
"MF";"GO:0004175";"endopeptidase activity";"10/167";"322/16969";0,00134840915458524;0,0432743360535413;0,037876054527816;"566/1511/4057/4318/4327/5657/9507/9510/56675/203100";10
"MF";"GO:0070412";"R-SMAD binding";"3/167";"23/16969";0,00143450837746546;0,0432743360535413;0,037876054527816;"2353/27063/28984";3
"MF";"GO:1901567";"fatty acid derivative binding";"3/167";"23/16969";0,00143450837746546;0,0432743360535413;0,037876054527816;"6279/6280/8435";3
